{
        "agent": {
                "metrics_collection_interval": 10,
                "run_as_user": "root"
        },
        "logs": {
                "logs_collected": {
                        "files": {
                                "collect_list": [
                                        {
                                                "file_path": "/var/lib/docker/containers",
                                                "log_group_name": "containers",
                                                "log_stream_name": "{instance_id}",
                                                "retention_in_days": 5
                                        },
                                        {
                                                "file_path": "/var/lib/docker/docker_id",
                                                "log_group_name": "OtherLogs",
                                                "log_stream_name": "{instance_id}",
                                                "retention_in_days": 7
                                        }
                                ]
                        }
                }
        },
        "metrics": {
                "aggregation_dimensions": [
                        [
                                "InstanceId"
                        ]
                ],
                "append_dimensions": {
                        "AutoScalingGroupName": "${aws:AutoScalingGroupName}",
                        "ImageId": "${aws:ImageId}",
                        "InstanceId": "${aws:InstanceId}",
                        "InstanceType": "${aws:InstanceType}"
                },
                "metrics_collected": {
                        "collectd": {
                                "metrics_aggregation_interval": 60
                        },
                        "cpu": {
                                "measurement": [
                                        "cpu_usage_idle",
                                        "cpu_usage_iowait",
                                        "cpu_usage_user",
                                        "cpu_usage_system"
                                ],
                                "metrics_collection_interval": 10,
                                "resources": [
                                        "*"
                                ],
                                "totalcpu": false
                        },
                        "disk": {
                                "measurement": [
                                        "used_percent",
                                        "inodes_free"
                                ],
                                "metrics_collection_interval": 10,
                                "resources": [
                                        "*"
                                ]
                        },
                        "diskio": {
                                "measurement": [
                                        "io_time",
                                        "write_bytes",
                                        "read_bytes",
                                        "writes",
                                        "reads"
                                ],
                                "metrics_collection_interval": 10,
                                "resources": [
                                        "*"
                                ]
                        },
                        "mem": {
                                "measurement": [
                                        "mem_used_percent"
                                ],
                                "metrics_collection_interval": 10
                        },
                        "netstat": {
                                "measurement": [
                                        "tcp_established",
                                        "tcp_time_wait"
                                ],
                                "metrics_collection_interval": 10
                        },
                        "swap": {
                                "measurement": [
                                        "swap_used_percent"
                                ],
                                "metrics_collection_interval": 10
                        }
                }
        }
}
